Limpieza de datos Data con R
…
Reemplazar valores por valores faltantes

Problema
Solución
Revisión

Valores inconsistentes o atípicos

df_clean |> 
  count(end_na) 

# A tibble: 30 × 2
   end_na     n
    <dbl> <int>
 1   -99      1
 2   133.     1
 3   135.     1
 4   135.     1
 5   136.     1
 6   137.     1
 7   137.     1
 8   138.     1
 9   138.     1
10   138.     1
# ℹ 20 more rows
…
df_clean <- df_raw |>
  janitor::clean_names() |> 
  janitor::remove_empty(which = c("rows", "cols")) |> 
  mutate(
    ethnic_clean = case_when(
      ethnic %in%  c("hispanic", "Hispanic", "hispamnic") ~ "hispanic",
      ethnic %in%  c("NOT hispanic", "not hispanic") ~ "not hispanic",
    ),
    end_na_clean = na_if(end_na, -99)
  ) 

df_clean |> 
  count(end_na, end_na_clean) 

# A tibble: 30 × 3
   end_na end_na_clean     n
    <dbl>        <dbl> <int>
 1   -99           NA      1
 2   133.         133.     1
 3   135.         135.     1
 4   135.         135.     1
 5   136.         136.     1
 6   137.         137.     1
 7   137.         137.     1
 8   138.         138.     1
 9   138.         138.     1
10   138.         138.     1
# ℹ 20 more rows
…
Rows: 30
Columns: 2
$ end_emo       <chr> "39.760954572288782", "49.369281547911214", "35.90128630…
$ end_emo_clean <dbl> 39.76095, 49.36928, 35.90129, 50.20575, 64.97344, 35.965…

mean(df_clean[["end_emo_clean"]], na.rm = TRUE)

[1] 44.99341

df_clean |> 
  count(end_emo_clean, end_emo)

# A tibble: 30 × 3
   end_emo_clean end_emo                n
           <dbl> <chr>              <int>
 1          13.1 13.120426912160625     1
 2          22.9 22.931081374117134     1
 3          27.0 27.007297504717883     1
 4          27.8 27.768279853236116     1
 5          28.0 28.024233546743879     1
 6          31.1 31.118353038978491     1
 7          33.2 33.176949642484104     1
 8          35.9 35.901286306780541     1
 9          36.0 35.965982580017993     1
10          37.3 37.34426764708568      1
# ℹ 20 more rows
…
df_clean |> 
  select(start_date, start_date_clean) |> 
  glimpse()

Rows: 30
Columns: 2
$ start_date       <dbl> 44208, 44215, 44230, 44245, 44255, 44259, 44264, 4499…
$ start_date_clean <date> 2021-01-12, 2021-01-19, 2021-02-03, 2021-02-18, 2021…

df_clean |> 
  count(start_date, start_date_clean) 

# A tibble: 30 × 3
   start_date start_date_clean     n
        <dbl> <date>           <int>
 1      44208 2021-01-12           1
 2      44215 2021-01-19           1
 3      44230 2021-02-03           1
 4      44245 2021-02-18           1
 5      44255 2021-02-28           1
 6      44259 2021-03-04           1
 7      44264 2021-03-09           1
 8      44276 2021-03-21           1
 9      44278 2021-03-23           1
10      44297 2021-04-11           1
# ℹ 20 more rows
…
La Unidad de Análisis - Formato largo

A menudo nos interesa el cambio en un Resultadoado a lo largo del tiempo.

Para que esto funcione, necesitamos una fila por cada medición del Resultadoado. Esto genera datos en formato largo, con múltiples visitas y mediciones para cada paciente.

# A tibble: 180 × 4
   pat_id treatment measure   score
   <chr>  <chr>     <chr>     <dbl>
 1 001    upa       start_mes  3   
 2 001    upa       end_mes    0   
 3 001    upa       start_bss 75.9 
 4 001    upa       end_bss    9.85
 5 001    upa       start_emo 79.3 
 6 001    upa       end_emo   39.8 
 7 002    uste      start_mes  2   
 8 002    uste      end_mes    1   
 9 002    uste      start_bss 54.7 
10 002    uste      end_bss   32.7 
# ℹ 170 more rows
…
A menudo ingresamos los datos por para cada una de las muestras.

Terminamos con datos “en formato ancho” en lugar de datos “en formato largo”

# A tibble: 6 × 8
  pat_id treatment start_mes end_mes start_bss end_bss start_emo end_emo
  <chr>  <chr>         <dbl>   <dbl>     <dbl>   <dbl>     <dbl>   <dbl>
1 001    upa               3       0      75.9    9.85      79.3    39.8
2 002    uste              2       1      54.7   32.7       58.6    49.4
3 003    oza               1       1      28.5   28.5       32.2    35.9
4 004    upa               3       1      77.2   33.2       75.6    50.2
5 005    oza               3       2      78.8   56.8       74.3    65.0
6 006    uste              2       1      54.4   32.4       45.3    36.0

# A tibble: 180 × 4
   pat_id treatment measure   score
   <chr>  <chr>     <chr>     <dbl>
 1 001    upa       start_mes  3   
 2 001    upa       end_mes    0   
 3 001    upa       start_bss 75.9 
 4 001    upa       end_bss    9.85
 5 001    upa       start_emo 79.3 
 6 001    upa       end_emo   39.8 
 7 002    uste      start_mes  2   
 8 002    uste      end_mes    1   
 9 002    uste      start_bss 54.7 
10 002    uste      end_bss   32.7 
# ℹ 170 more rows

Reorganización de los datos con tidyr

R (y la mayoría de las funciones de R) están vectorizados para manejar datos en formato largo.

Una pequeña observación por fila.

La mayoría de los análisis en R son más fáciles de ejecutar con datos en formato largo.

# A tibble: 180 × 4
   pat_id treatment measure   score
   <chr>  <chr>     <chr>     <dbl>
 1 001    upa       start_mes  3   
 2 001    upa       end_mes    0   
 3 001    upa       start_bss 75.9 
 4 001    upa       end_bss    9.85
 5 001    upa       start_emo 79.3 
 6 001    upa       end_emo   39.8 
 7 002    uste      start_mes  2   
 8 002    uste      end_mes    1   
 9 002    uste      start_bss 54.7 
10 002    uste      end_bss   32.7 
# ℹ 170 more rows
…
Detalles de la página de ayuda de tidyverse aquí.

data = tu dataframe/tibble, puedes usar el operador pipe |> | %>%.

cols = columnas a reorganizar, como un vector de nombres, por número o seleccionadas con las funciones de tidyselect.

names_to = Nombre de la nueva columna o columnas a crear a partir de la información almacenada en los nombres de columna de los datos especificados por cols.

values_to = nombre de la columna a crear a partir de los datos almacenados en los valores de las celdas.

Pivoteando a un formato largo

Comencemos con la versión de en formato ancho(columnas seleccionadas de messy_uc)

# A tibble: 30 × 8
   pat_id treatment start_mes end_mes start_bss end_bss start_emo end_emo
   <chr>  <chr>         <dbl>   <dbl>     <dbl>   <dbl>     <dbl>   <dbl>
 1 001    upa               3       0      75.9    9.85      79.3    39.8
 2 002    uste              2       1      54.7   32.7       58.6    49.4
 3 003    oza               1       1      28.5   28.5       32.2    35.9
 4 004    upa               3       1      77.2   33.2       75.6    50.2
 5 005    oza               3       2      78.8   56.8       74.3    65.0
 6 006    uste              2       1      54.4   32.4       45.3    36.0
 7 007    uste              3       2      79.7   57.7       66.6    57.8
 8 008    oza               3       2      75.0   53.0       74.5    62.0
 9 009    upa               2       0      53.1    9.06      50.0    27.8
10 010    oza               3       1      78.9   34.9       72.5    45.9
# ℹ 20 more rows

Ten en cuenta que hay 30 filas de observaciones, con 6 cantidades medidas para cada observación.

Pivoteando a un formato largo

Esta es la versión larga con la que queremos terminar.

# A tibble: 180 × 4
   pat_id treatment measure   score
   <chr>  <chr>     <chr>     <dbl>
 1 001    upa       start_mes  3   
 2 001    upa       end_mes    0   
 3 001    upa       start_bss 75.9 
 4 001    upa       end_bss    9.85
 5 001    upa       start_emo 79.3 
 6 001    upa       end_emo   39.8 
 7 002    uste      start_mes  2   
 8 002    uste      end_mes    1   
 9 002    uste      start_bss 54.7 
10 002    uste      end_bss   32.7 
# ℹ 170 more rows

Ten en cuenta que ahora hay 180 filas (30*6), con una fila por cada medida y cada observación.

Realizando el pivot_longer()

¿Qué valores queremos para estos argumentos clave para usar tidyr::pivot_longer?

cols (¿qué columnas queremos pivotear?)

names_to (variable para almacenar los nombres de las columnas)

values_to (variable para almacenar los valores de cada una de las mediciones)

# A tibble: 30 × 8
   pat_id treatment start_mes end_mes start_bss end_bss start_emo end_emo
   <chr>  <chr>         <dbl>   <dbl>     <dbl>   <dbl>     <dbl>   <dbl>
 1 001    upa               3       0      75.9    9.85      79.3    39.8
 2 002    uste              2       1      54.7   32.7       58.6    49.4
 3 003    oza               1       1      28.5   28.5       32.2    35.9
 4 004    upa               3       1      77.2   33.2       75.6    50.2
 5 005    oza               3       2      78.8   56.8       74.3    65.0
 6 006    uste              2       1      54.4   32.4       45.3    36.0
 7 007    uste              3       2      79.7   57.7       66.6    57.8
 8 008    oza               3       2      75.0   53.0       74.5    62.0
 9 009    upa               2       0      53.1    9.06      50.0    27.8
10 010    oza               3       1      78.9   34.9       72.5    45.9
# ℹ 20 more rows

tidyr::pivot_longer()

Problema
Code
Resultado

# A tibble: 30 × 8
   pat_id treatment start_mes end_mes start_bss end_bss start_emo end_emo
   <chr>  <chr>         <dbl>   <dbl>     <dbl>   <dbl>     <dbl>   <dbl>
 1 001    upa               3       0      75.9    9.85      79.3    39.8
 2 002    uste              2       1      54.7   32.7       58.6    49.4
 3 003    oza               1       1      28.5   28.5       32.2    35.9
 4 004    upa               3       1      77.2   33.2       75.6    50.2
 5 005    oza               3       2      78.8   56.8       74.3    65.0
 6 006    uste              2       1      54.4   32.4       45.3    36.0
 7 007    uste              3       2      79.7   57.7       66.6    57.8
 8 008    oza               3       2      75.0   53.0       74.5    62.0
 9 009    upa               2       0      53.1    9.06      50.0    27.8
10 010    oza               3       1      78.9   34.9       72.5    45.9
# ℹ 20 more rows
…
comienza con datos en formato ancho y utiliza tidyr::pivot_longer()

2

Indica qué columnas pivotar (selección por nombre, posición, coincidencia..),

3

Indica en qué columna (entre comillas) deben ir los nombres de las variables pivoteadas

4

Indica en qué columna (entre comillas) deben ir los valores pivoteados

# A tibble: 180 × 4
   pat_id treatment measure   score
   <chr>  <chr>     <chr>     <dbl>
 1 001    upa       start_mes  3   
 2 001    upa       end_mes    0   
 3 001    upa       start_bss 75.9 
 4 001    upa       end_bss    9.85
 5 001    upa       start_emo 79.3 
 6 001    upa       end_emo   39.8 
 7 002    uste      start_mes  2   
 8 002    uste      end_mes    1   
 9 002    uste      start_bss 54.7 
10 002    uste      end_bss   32.7 
# ℹ 170 more rows
…
Argumentos

col

sep

into

tall |>
  separate(col = "measure",
           sep = "_",
           into = c("timept", "measure")
  )

# A tibble: 180 × 5
   pat_id treatment timept measure score
   <chr>  <chr>     <chr>  <chr>   <dbl>
 1 001    upa       start  mes      3   
 2 001    upa       end    mes      0   
 3 001    upa       start  bss     75.9 
 4 001    upa       end    bss      9.85
 5 001    upa       start  emo     79.3 
 6 001    upa       end    emo     39.8 
 7 002    uste      start  mes      2   
 8 002    uste      end    mes      1   
 9 002    uste      start  bss     54.7 
10 002    uste      end    bss     32.7 
# ℹ 170 more rows

Puedes hacer esto dentro de pivot_longer con solo un argumento adicional 
(si lees toda la documentación de pivot_longer)

wide |>
  pivot_longer(cols = 3:8,
               names_to = c("timept", "measure"),
               names_sep = "_",
               values_to = "score")

# A tibble: 180 × 5
   pat_id treatment timept measure score
   <chr>  <chr>     <chr>  <chr>   <dbl>
 1 001    upa       start  mes      3   
 2 001    upa       end    mes      0   
 3 001    upa       start  bss     75.9 
 4 001    upa       end    bss      9.85
 5 001    upa       start  emo     79.3 
 6 001    upa       end    emo     39.8 
 7 002    uste      start  mes      2   
 8 002    uste      end    mes      1   
 9 002    uste      start  bss     54.7 
10 002    uste      end    bss     32.7 
# ℹ 170 more rows

Pivoteo hacia un formato ancho

formato largo

Los datos en formato largo son menos comunes, pero a veces son necesarios para el análisis por observación.

Aquí convertiremos la versión larga de nuestros datos seleccionados “messy_uc” nuevamente a una versión ancha.

Así es como se ven los datos en su forma larga.

# A tibble: 180 × 4
   pat_id treatment measure   score
   <chr>  <chr>     <chr>     <dbl>
 1 001    upa       start_mes  3   
 2 001    upa       end_mes    0   
 3 001    upa       start_bss 75.9 
 4 001    upa       end_bss    9.85
 5 001    upa       start_emo 79.3 
 6 001    upa       end_emo   39.8 
 7 002    uste      start_mes  2   
 8 002    uste      end_mes    1   
 9 002    uste      start_bss 54.7 
10 002    uste      end_bss   32.7 
# ℹ 170 more rows

Pivoteo hacia un formato ancho

tall |>
  pivot_wider(
    id_cols = c(pat_id, treatment), # Variables no pivotadas
    names_from = measure, # Variable que se convertirán en nombres de columnas
    values_from = score # Variable que se convertirán en valores
  )

Pivoteo hacia un formato ancho

# A tibble: 30 × 8
   pat_id treatment start_mes end_mes start_bss end_bss start_emo end_emo
   <chr>  <chr>         <dbl>   <dbl>     <dbl>   <dbl>     <dbl>   <dbl>
 1 001    upa               3       0      75.9    9.85      79.3    39.8
 2 002    uste              2       1      54.7   32.7       58.6    49.4
 3 003    oza               1       1      28.5   28.5       32.2    35.9
 4 004    upa               3       1      77.2   33.2       75.6    50.2
 5 005    oza               3       2      78.8   56.8       74.3    65.0
 6 006    uste              2       1      54.4   32.4       45.3    36.0
 7 007    uste              3       2      79.7   57.7       66.6    57.8
 8 008    oza               3       2      75.0   53.0       74.5    62.0
 9 009    upa               2       0      53.1    9.06      50.0    27.8
10 010    oza               3       1      78.9   34.9       72.5    45.9
# ℹ 20 more rows
…
Completando fechas sin observaciones

Problema
Codigo
Resultado

Podemos completar los días sin observaciones con la función pad().

fcp |>
  pad(group = "pat_id") |> # esto agrega líneas para cada día faltante en los datos
  print(n = 12)

# A tibble: 21 × 3
   pat_id date         fcp
   <chr>  <date>     <dbl>
 1 001    2022-12-01  1574
 2 001    2022-12-02  1323
 3 001    2022-12-03    NA
 4 001    2022-12-04    NA
 5 001    2022-12-05   673
 6 001    2022-12-06   314
 7 001    2022-12-07   168
 8 002    2022-11-30  1393
 9 002    2022-12-01  1014
10 002    2022-12-02   812
11 002    2022-12-03    NA
12 002    2022-12-04    NA
# ℹ 9 more rows
…
